{
  "builders": [
    {
      "changes": [
        "ENV LANG=en_US.UTF-8",
        "ENV LC_ALL=en_US.UTF-8",
        "ENV SHELL=/bin/bash",
        "ENV TZ=UTC",
        "ENV PGDATA=/var/lib/postgresql/data",
        "ENV PATH=/usr/local/sbin:/usr/local/bin:/usr/sbin:/usr/bin:/sbin:/bin:/usr/lib/postgresql/12/bin",
        "VOLUME /var/lib/postgresql/data",
        "WORKDIR /var/lib/postgresql/data",
        "EXPOSE 5432",
        "ENTRYPOINT [\"catatonit\", \"-g\", \"--\", \"docker-entrypoint.sh\"]",
        "CMD [\"postgres\"]"
      ],
      "commit": true,
      "image": "ubuntu:22.04",
      "privileged": true,
      "type": "docker"
    }
  ],
  "post-processors": [
    {
      "inline": [
        "set -eu",
        "export _ID=$(docker images | awk '{ print $3 }' | awk 'NR==2')",
        "mkdir -p output-docker",
        "docker save $_ID | gzip -9 > output-docker/image.tar.gz"
      ],
      "type": "shell-local"
    }
  ],
  "provisioners": [
    {
      "inline": [
        "set -eu",
        "apt-get update",
        "DEBIAN_FRONTEND=noninteractive apt-get dist-upgrade -y",
        "DEBIAN_FRONTEND=noninteractive apt-get install -y ca-certificates curl gcc hostname iproute2 language-pack-en locales python3 sudo"
      ],
      "type": "shell"
    },
    {
      "galaxy_file": "./ansible-galaxy-requirements.yml",
      "inventory_directory": "./",
      "playbook_file": "./packer.yml",
      "type": "ansible",
      "user": "root"
    }
  ]
}

